-----BEGIN PGP SIGNATURE-----
Version: GnuPG v1.4.3 (GNU/Linux)
Comment: get my key from http://fortytwo.ch/gpg/92082481

iEYEABECAAYFAkVZc3MACgkQKqpm2L3fmXre1gCgh3cJ8Sz5etYNNyZSTPGAZAdN
0usAoIgFoQBnigX82X/qxK3CSh4vT+eb
=a4i6
-----END PGP SIGNATURE-----
